{
  "$schema": "https://ui.shadcn.com/schema.json",
  "style": "default",
  "rsc": false,
  "tsx": false,
  "tailwind": {
    "config": "tailwind.config.js",
    "css": "src/index.css",
    "baseColor": "slate",
    "cssVariables": false
  },
  "aliases": {
    "components": "src/components",
    "utils": "src/libs/utils"
  }
}